<?xml version="1.0" encoding="UTF-8" standalone="no"?>
<!-- Created with Inkscape (http://www.inkscape.org/) -->

<svg
   xmlns:svg="http://www.w3.org/2000/svg"
   xmlns="http://www.w3.org/2000/svg"
   xmlns:xlink="http://www.w3.org/1999/xlink"
   version="1.1"
   width="24"
   height="24"
   id="svg2876">
  <defs
     id="defs2880" />
  <g
     transform="translate(0,-45)"
     id="layer1">
    <path
       d="m 60.987962,44.168079 a 11.932427,11.755651 0 1 1 -23.864855,0 11.932427,11.755651 0 1 1 23.864855,0 z"
       transform="matrix(0.33425017,0,0,0.33927632,-4.1128067,40.481726)"
       id="path2889"
       style="fill:#a40000;fill-rule:evenodd;stroke:none" />
    <path
       d="m 46.79077,13.47074 a 5.2970681,19.864006 0 1 1 -10.594136,0 5.2970681,19.864006 0 1 1 10.594136,0 z"
       transform="matrix(-0.28219122,-0.194073,0.28834551,-0.45958597,20.167368,69.719624)"
       id="path3691"
       style="fill:none;stroke:#a40000;stroke-width:2.32087159;stroke-miterlimit:4;stroke-opacity:1;stroke-dasharray:none" />
    <path
       d="m 46.79077,13.47074 a 5.2970681,19.864006 0 1 1 -10.594136,0 5.2970681,19.864006 0 1 1 10.594136,0 z"
       transform="matrix(-0.29514915,0.17373331,-0.29466603,-0.45555929,28.558642,54.40375)"
       id="path3715"
       style="fill:none;stroke:#a40000;stroke-width:2.32087135;stroke-miterlimit:4;stroke-opacity:1;stroke-dasharray:none" />
    <path
       d="m 12.204232,53.662156 c -5.8511033,0.009 -10.5956203,0.806222 -10.6390876,1.794778 -0.04385,0.997597 4.71497,1.818443 10.6390876,1.834658 l 0,-3.629436 z"
       id="path3717"
       style="fill:none;stroke:#a40000;stroke-width:1;stroke-miterlimit:4;stroke-opacity:1;stroke-dasharray:none" />
    <path
       d="m 21.794491,46.850746 l -1.915506,0 0,13.746585 l 1.915506,0"
       id="path3744"
       style="fill:none;stroke:#a40000;stroke-width:1;stroke-linecap:butt;stroke-linejoin:miter;stroke-miterlimit:4;stroke-opacity:1;stroke-dasharray:none" />
    <path
       d="m 19.822646,50.174714 l 1.859171,0"
       id="path3746"
       style="fill:none;stroke:#a40000;stroke-width:1;stroke-linecap:butt;stroke-linejoin:miter;stroke-miterlimit:4;stroke-opacity:1;stroke-dasharray:none" />
    <path
       d="m 19.822646,57.04799 l 1.69016,0"
       id="path3748"
       style="fill:none;stroke:#a40000;stroke-width:1;stroke-linecap:butt;stroke-linejoin:miter;stroke-miterlimit:4;stroke-opacity:1;stroke-dasharray:none" />
    <path
       d="m 22.370558,53.668539 l -7.201933,0"
       id="path3750"
       style="fill:none;stroke:#a40000;stroke-width:1;stroke-linecap:butt;stroke-linejoin:miter;stroke-miterlimit:4;stroke-opacity:1;stroke-dasharray:none" />
    <path
       d="m 33.548098,14.000447 a 2.9133875,2.9133875 0 1 1 -5.826775,0 2.9133875,2.9133875 0 1 1 5.826775,0 z"
       transform="matrix(0.38331869,0,0,0.38331869,-2.3305062,43.399734)"
       id="path3752"
       style="fill:#a40000;fill-opacity:1;stroke:none" />
    <path
       d="m 33.548098,14.000447 a 2.9133875,2.9133875 0 1 1 -5.826775,0 2.9133875,2.9133875 0 1 1 5.826775,0 z"
       transform="matrix(0.38331869,0,0,0.38331869,-2.3305062,57.438967)"
       id="path3754"
       style="fill:#a40000;fill-opacity:1;stroke:none" />
    <path
       d="m 33.548098,14.000447 a 2.9133875,2.9133875 0 1 1 -5.826775,0 2.9133875,2.9133875 0 1 1 5.826775,0 z"
       transform="matrix(0.38331869,0,0,0.38331869,10.381694,48.34537)"
       id="path3756"
       style="fill:#a40000;fill-opacity:1;stroke:none" />
  </g>
</svg>
