<?xml version="1.0" encoding="UTF-8" standalone="no"?>
<!-- Created with Inkscape (http://www.inkscape.org/) -->

<svg
   xmlns:dc="http://purl.org/dc/elements/1.1/"
   xmlns:cc="http://creativecommons.org/ns#"
   xmlns:rdf="http://www.w3.org/1999/02/22-rdf-syntax-ns#"
   xmlns:svg="http://www.w3.org/2000/svg"
   xmlns="http://www.w3.org/2000/svg"
   xmlns:sodipodi="http://sodipodi.sourceforge.net/DTD/sodipodi-0.dtd"
   xmlns:inkscape="http://www.inkscape.org/namespaces/inkscape"
   version="1.1"
   width="160"
   height="64"
   id="svg2876"
   inkscape:version="0.92.4 (5da689c313, 2019-01-14)"
   sodipodi:docname="FreeElectron.svg"
   inkscape:export-filename="/home/symhost/sym/proj/fe/base/doc/image/FreeElectron_alpha.png"
   inkscape:export-xdpi="96"
   inkscape:export-ydpi="96"
   viewBox="0 -32 160 64">
  <metadata
     id="metadata18">
    <rdf:RDF>
      <cc:Work
         rdf:about="">
        <dc:format>image/svg+xml</dc:format>
        <dc:type
           rdf:resource="http://purl.org/dc/dcmitype/StillImage" />
        <dc:title></dc:title>
      </cc:Work>
    </rdf:RDF>
  </metadata>
  <sodipodi:namedview
     pagecolor="#ffffff"
     bordercolor="#666666"
     borderopacity="1"
     objecttolerance="10"
     gridtolerance="10"
     guidetolerance="10"
     inkscape:pageopacity="0"
     inkscape:pageshadow="2"
     inkscape:window-width="3083"
     inkscape:window-height="1791"
     id="namedview16"
     showgrid="false"
     inkscape:zoom="2"
     inkscape:cx="65"
     inkscape:cy="-38.295679"
     inkscape:window-x="21"
     inkscape:window-y="0"
     inkscape:window-maximized="0"
     inkscape:current-layer="layer2"
     inkscape:snap-to-guides="false"
     showguides="false"
     fit-margin-top="1"
     fit-margin-left="1"
     fit-margin-right="1"
     fit-margin-bottom="1"
     inkscape:snap-grids="true"
     inkscape:showpageshadow="false"
     borderlayer="false"
     scale-x="0.5"
     viewbox-y="-32"
     viewbox-height="64">
    <sodipodi:guide
       position="47.565968,25.634465"
       orientation="0,24"
       id="guide3782"
       inkscape:locked="false" />
    <sodipodi:guide
       position="71.565968,25.634465"
       orientation="-24,0"
       id="guide3784"
       inkscape:locked="false" />
    <sodipodi:guide
       position="71.565968,49.634465"
       orientation="0,-24"
       id="guide3786"
       inkscape:locked="false" />
    <sodipodi:guide
       position="47.565968,49.634465"
       orientation="24,0"
       id="guide3788"
       inkscape:locked="false" />
    <sodipodi:guide
       position="47.565968,25.634465"
       orientation="0,24"
       id="guide3790"
       inkscape:locked="false" />
    <sodipodi:guide
       position="71.565968,25.634465"
       orientation="-24,0"
       id="guide3792"
       inkscape:locked="false" />
    <sodipodi:guide
       position="71.565968,49.634465"
       orientation="0,-24"
       id="guide3794"
       inkscape:locked="false" />
    <sodipodi:guide
       position="47.565968,49.634465"
       orientation="24,0"
       id="guide3796"
       inkscape:locked="false" />
    <inkscape:grid
       type="xygrid"
       id="grid3798"
       empspacing="5"
       visible="true"
       enabled="true"
       snapvisiblegridlinesonly="true" />
  </sodipodi:namedview>
  <defs
     id="defs2880" />
  <g
     transform="translate(47.565968,-62.63447)"
     id="layer1" />
  <g
     inkscape:groupmode="layer"
     id="layer2"
     inkscape:label="vector"
     style="display:inline"
     transform="translate(47.565968,-17.63447)"
     sodipodi:insensitive="true">
    <path
       d="m 1.964362,17.658392 a 13,12.968256 0 0 1 -26,0 13,12.968256 0 1 1 26,0 z"
       id="path2889"
       style="display:inline;fill:#0000c0;fill-opacity:1;fill-rule:evenodd;stroke:none"
       inkscape:connector-curvature="0"
       inkscape:transform-center-x="-13.022584"
       inkscape:transform-center-y="-7.2973506" />
    <path
       d="m -15.565968,14.63447 a 5.6925124,33.848724 32.033983 0 1 9.3892734,6.457342 5.6925124,33.848724 32.033983 0 1 -9.3892734,-6.457342 z"
       id="path3691"
       style="display:inline;fill:none;stroke:#0000c0;stroke-width:2.4000001;stroke-miterlimit:4;stroke-dasharray:none;stroke-opacity:1"
       inkscape:connector-curvature="0"
       inkscape:transform-center-x="-12.73157"
       inkscape:transform-center-y="-7.0265947" />
    <path
       d="m -15.781527,20.753475 a 33.848717,5.6925135 57.03401 1 1 9.82042,-5.780581 33.848717,5.6925135 57.03401 1 1 -9.82042,5.780581 z"
       id="path3715"
       style="display:inline;fill:none;stroke:#0000c0;stroke-width:2.4000001;stroke-miterlimit:4;stroke-dasharray:none;stroke-opacity:1"
       inkscape:connector-curvature="0"
       inkscape:transform-center-x="-12.731583"
       inkscape:transform-center-y="-7.0265521" />
    <path
       d="m -11.305389,12.166904 c -18.376415,0.02827 -33.277402,2.532081 -33.413916,5.636815 -0.137718,3.133128 14.808189,5.711139 33.413916,5.762065 z"
       id="path3717"
       style="display:inline;fill:none;stroke:#0000c0;stroke-width:2.4000001;stroke-miterlimit:4;stroke-dasharray:none;stroke-opacity:1"
       inkscape:connector-curvature="0"
       inkscape:transform-center-x="4.4099181"
       inkscape:transform-center-y="-7.0233906" />
    <path
       d="m 19.434032,-10.36553 h -6 v 46 h 6"
       id="path3744"
       style="display:inline;fill:none;stroke:#0000c0;stroke-width:2.4000001;stroke-linecap:round;stroke-linejoin:round;stroke-miterlimit:4;stroke-dasharray:none;stroke-opacity:1;marker-mid:none"
       inkscape:connector-curvature="0"
       inkscape:transform-center-x="-45.977623"
       inkscape:transform-center-y="-13.402559"
       sodipodi:nodetypes="cccc" />
    <path
       d="m 13.434032,1.63447 h 6"
       id="path3746"
       style="display:inline;fill:none;stroke:#0000c0;stroke-width:2.4000001;stroke-linecap:round;stroke-linejoin:round;stroke-miterlimit:4;stroke-dasharray:none;stroke-opacity:1"
       inkscape:connector-curvature="0"
       inkscape:transform-center-x="-39.144003"
       inkscape:transform-center-y="-23.675753"
       sodipodi:nodetypes="cc" />
    <path
       d="m 13.434032,23.63447 h 6"
       id="path3748"
       style="display:inline;fill:none;stroke:#0000c0;stroke-width:2.4000001;stroke-linecap:round;stroke-linejoin:round;stroke-miterlimit:4;stroke-dasharray:none;stroke-opacity:1"
       inkscape:connector-curvature="0"
       inkscape:transform-center-x="-38.878595"
       inkscape:transform-center-y="-2.0890248"
       sodipodi:nodetypes="cc" />
    <path
       d="M 106.43403,12.63447 H -0.565968"
       id="path3750"
       style="display:inline;fill:none;stroke:#0000c0;stroke-width:2.4000001;stroke-linecap:butt;stroke-linejoin:miter;stroke-miterlimit:4;stroke-dasharray:none;stroke-opacity:1"
       inkscape:connector-curvature="0"
       inkscape:transform-center-x="-155.71636"
       inkscape:transform-center-y="-12.702784" />
    <path
       d="m -15.565968,-3.38403 a 4,3.9878378 0 0 1 -8,0 4,3.9878378 0 1 1 8,0 z"
       id="path3752"
       style="display:inline;fill:#0000c0;fill-opacity:1;stroke:none"
       inkscape:connector-curvature="0"
       inkscape:transform-center-x="-4.0248065"
       inkscape:transform-center-y="-31.948139" />
    <path
       d="m -16.565968,40.664796 a 4,3.9878379 0 0 1 -8,0 4,3.9878379 0 1 1 8,0 z"
       id="path3754"
       style="display:inline;fill:#0000c0;fill-opacity:1;stroke:none"
       inkscape:connector-curvature="0"
       inkscape:transform-center-x="-4.0248065"
       inkscape:transform-center-y="18.184715" />
    <path
       d="m 110.43403,12.63447 a 3.9864113,4.0023968 0 0 1 -7.97282,0 3.9864113,4.0023968 0 1 1 7.97282,0 z"
       id="path3756"
       style="display:inline;fill:#0000c0;fill-opacity:1;stroke:none"
       inkscape:connector-curvature="0"
       inkscape:transform-center-x="-49.389018"
       inkscape:transform-center-y="-14.344057" />
    <path
       d="m 31.434032,2.63447 v -3 h -6 v 26 h 6"
       id="path3744-0"
       style="display:inline;fill:none;stroke:#0000c0;stroke-width:2.4000001;stroke-linecap:round;stroke-linejoin:round;stroke-miterlimit:4;stroke-dasharray:none;stroke-opacity:1"
       inkscape:connector-curvature="0"
       inkscape:transform-center-x="-39.409407"
       inkscape:transform-center-y="-7.2460605"
       sodipodi:nodetypes="ccccc" />
    <path
       d="m 38.434032,5.63447 h 5 v -6 h -6 v 26 h 6 v -3"
       id="path3744-0-3"
       style="display:inline;fill:none;stroke:#0000c0;stroke-width:2.4000001;stroke-linecap:round;stroke-linejoin:round;stroke-miterlimit:4;stroke-dasharray:none;stroke-opacity:1"
       inkscape:connector-curvature="0"
       inkscape:transform-center-x="-47.291288"
       inkscape:transform-center-y="-7.2460605"
       sodipodi:nodetypes="ccccccc" />
    <path
       style="fill:none;stroke:#0000c0;stroke-width:2.4000001;stroke-linecap:round;stroke-linejoin:round;stroke-miterlimit:4;stroke-dasharray:none;stroke-opacity:1"
       d="m 37.434032,18.63447 h 6 v -9"
       id="path3818"
       inkscape:connector-curvature="0"
       sodipodi:nodetypes="ccc" />
    <path
       d="m 50.434032,5.63447 h 5 v -6 h -6 v 26 h 6 v -3"
       id="path3744-0-3-4"
       style="display:inline;fill:none;stroke:#0000c0;stroke-width:2.4000001;stroke-linecap:round;stroke-linejoin:round;stroke-miterlimit:4;stroke-dasharray:none;stroke-opacity:1"
       inkscape:connector-curvature="0"
       inkscape:transform-center-x="-47.291288"
       inkscape:transform-center-y="-7.2460605"
       sodipodi:nodetypes="ccccccc" />
    <path
       style="display:inline;fill:none;stroke:#0000c0;stroke-width:2.4000001;stroke-linecap:round;stroke-linejoin:round;stroke-miterlimit:4;stroke-dasharray:none;stroke-opacity:1"
       d="m 55.434032,15.63447 v -6"
       id="path3818-7"
       inkscape:connector-curvature="0"
       sodipodi:nodetypes="cc" />
    <path
       style="display:inline;fill:none;stroke:#0000c0;stroke-width:2.4000001;stroke-linecap:round;stroke-linejoin:round;stroke-miterlimit:4;stroke-dasharray:none;stroke-opacity:1"
       d="m 63.434032,25.63447 h -2 v -17"
       id="path3818-1"
       inkscape:connector-curvature="0"
       sodipodi:nodetypes="ccc" />
    <path
       style="display:inline;fill:none;stroke:#0000c0;stroke-width:2.4000001;stroke-linecap:round;stroke-linejoin:round;stroke-miterlimit:4;stroke-dasharray:none;stroke-opacity:1"
       d="m 69.434032,25.63447 v -12"
       id="path3818-7-8"
       inkscape:connector-curvature="0"
       sodipodi:nodetypes="cc" />
    <path
       style="display:inline;fill:none;stroke:#0000c0;stroke-width:2.4000001;stroke-linecap:round;stroke-linejoin:round;stroke-miterlimit:4;stroke-dasharray:none;stroke-opacity:1"
       d="m 75.434032,15.63447 v -2"
       id="path3818-7-8-3"
       inkscape:connector-curvature="0"
       sodipodi:nodetypes="cc" />
    <path
       style="display:inline;fill:none;stroke:#0000c0;stroke-width:2.4000001;stroke-linecap:round;stroke-linejoin:round;stroke-miterlimit:4;stroke-dasharray:none;stroke-opacity:1"
       d="m 93.434032,25.63447 v -12"
       id="path3818-7-8-6"
       inkscape:connector-curvature="0"
       sodipodi:nodetypes="cc" />
    <path
       style="display:inline;fill:none;stroke:#0000c0;stroke-width:2.4000001;stroke-linecap:round;stroke-linejoin:round;stroke-miterlimit:4;stroke-dasharray:none;stroke-opacity:1"
       d="m 99.434032,25.63447 v -12"
       id="path3818-7-8-6-7"
       inkscape:connector-curvature="0"
       sodipodi:nodetypes="cc" />
    <path
       style="display:inline;fill:none;stroke:#0000c0;stroke-width:2.4000001;stroke-linecap:round;stroke-linejoin:round;stroke-miterlimit:4;stroke-dasharray:none;stroke-opacity:1"
       d="m 87.434032,13.63447 v 12 h -6 v -12"
       id="path3818-7-8-6-3"
       inkscape:connector-curvature="0"
       sodipodi:nodetypes="cccc" />
  </g>
</svg>
