{
	"env":
	[
		{
			"HOUDINI_DSO_ERROR": "${HOUDINI_DSO_ERROR-1}"
		},
		{
			"FE_ROOT":
			{
				"houdini_os == 'windows'": "${FE_ROOT-${USERPROFILE}/scoop/apps/freeelectron/current/fe}"
			}
		},
		{
			"FE_ROOT":
			{
				"houdini_os == 'linux'": "${FE_ROOT-/opt/freeelectron_org/fe}"
			}
		},
		{
			"FE_PLATFORM":
			{
				"houdini_os == 'windows'": "x86_win64"
			}
		},
		{
			"FE_PLATFORM":
			{
				"houdini_os == 'linux'": "x86_64_linux"
			}
		},
		{
			"CODEGEN": "${CODEGEN-optimize}"
		},
		{
			"PATH": "${FE_ROOT}/lib/${FE_PLATFORM}_${CODEGEN}"
		},
		{
			"HOUDINI_PATH": "${FE_ROOT}/lib/${FE_PLATFORM}_${CODEGEN}/houdini${HOUDINI_VERSION}"
		}
	]
}
