#FIG 3.2
Landscape
Center
Inches
Letter  
100.00
Single
-2
1200 2
0 32 #bfbfbf
0 33 #b3e0bb
0 34 #d3bfbf
0 35 #d1cbaf
0 36 #c19faf
6 4800 6600 6600 7200
2 2 0 1 0 30 50 -1 20 0.000 0 0 -1 0 0 5
	 4800 6600 6600 6600 6600 7200 4800 7200 4800 6600
4 0 0 50 -1 18 12 0.0000 4 135 600 4875 6900 TCP/IP\001
-6
6 4800 4800 6600 5400
2 2 0 1 0 34 50 -1 20 0.000 0 0 -1 0 0 5
	 4800 4800 6600 4800 6600 5400 4800 5400 4800 4800
4 0 0 50 -1 18 12 0.0000 4 180 1035 4875 5100 ChunkSpool\001
-6
6 4800 3600 6600 4200
2 2 0 1 0 32 50 -1 20 0.000 0 0 -1 0 0 5
	 4800 3600 6600 3600 6600 4200 4800 4200 4800 3600
4 0 0 50 -1 18 12 0.0000 4 180 720 4875 3900 Signaler\001
-6
6 4800 3000 6600 3600
2 2 0 1 0 36 50 -1 20 0.000 0 0 -1 0 0 5
	 4800 3000 6600 3000 6600 3600 4800 3600 4800 3000
4 0 0 50 -1 18 12 0.0000 4 135 675 4875 3300 Handler\001
-6
6 6600 2400 8400 3600
2 2 0 1 0 14 50 -1 20 0.000 0 0 -1 0 0 5
	 6600 2400 8400 2400 8400 3600 6600 3600 6600 2400
4 0 0 50 -1 18 12 0.0000 4 180 960 6750 2700 Application\001
-6
6 6675 3075 8325 3525
2 4 0 1 0 6 40 -1 20 0.000 0 0 7 0 0 5
	 8325 3525 8325 3075 6675 3075 6675 3525 8325 3525
4 0 0 40 -1 18 12 0.0000 4 135 1500 6750 3375 coherence model\001
-6
6 6600 3600 8400 6600
2 2 0 1 0 17 50 -1 20 0.000 0 0 -1 0 0 5
	 8400 3600 6600 3600 6600 6600 8400 6600 8400 3600
4 0 0 40 -1 18 12 0.0000 4 135 735 6750 3900 network\001
4 0 0 50 -1 18 12 0.0000 4 135 1170 6825 4200 Client/Server\001
-6
6 4800 6000 6600 6600
2 2 0 1 0 33 50 -1 20 0.000 0 0 -1 0 0 5
	 4800 6000 6600 6000 6600 6600 4800 6600 4800 6000
4 0 0 50 -1 18 12 0.0000 4 135 930 4875 6300 fe::Socket\001
-6
2 2 0 1 0 35 50 -1 20 0.000 0 0 -1 0 0 5
	 4800 5400 6600 5400 6600 6000 4800 6000 4800 5400
2 2 0 1 0 33 50 -1 20 0.000 0 0 -1 0 0 5
	 4800 4200 6600 4200 6600 4800 4800 4800 4800 4200
4 0 0 50 -1 18 12 0.0000 4 135 540 4875 5700 Chunk\001
4 0 0 50 -1 18 12 0.0000 4 135 1485 4875 5850 Sender/Receiver\001
4 0 0 50 -1 18 12 0.0000 4 180 540 4875 4500 Signal\001
4 0 0 50 -1 18 12 0.0000 4 135 1485 4875 4650 Sender/Receiver\001
