#FIG 3.2
Landscape
Center
Inches
Letter  
100.00
Single
-2
1200 2
0 32 #e3e3e3
0 33 #000000
0 34 #fceea4
6 10500 3900 12300 4500
2 2 0 1 0 30 50 -1 20 0.000 0 0 -1 0 0 5
	 10500 3900 12300 3900 12300 4500 10500 4500 10500 3900
4 0 0 50 -1 18 12 0.0000 4 135 675 10650 4200 Handler\001
-6
6 10500 3000 12300 3600
2 2 0 1 0 30 50 -1 20 0.000 0 0 -1 0 0 5
	 10500 3000 12300 3000 12300 3600 10500 3600 10500 3000
4 0 0 50 -1 18 12 0.0000 4 135 675 10650 3300 Handler\001
-6
6 10500 2100 12300 2700
2 2 0 1 0 30 50 -1 20 0.000 0 0 -1 0 0 5
	 10500 2100 12300 2100 12300 2700 10500 2700 10500 2100
4 0 0 50 -1 18 12 0.0000 4 135 675 10650 2400 Handler\001
-6
6 1200 3900 3000 4500
2 2 0 1 0 30 50 -1 20 0.000 0 0 -1 0 0 5
	 1200 3900 3000 3900 3000 4500 1200 4500 1200 3900
4 0 0 50 -1 18 12 0.0000 4 135 675 1350 4200 Handler\001
-6
6 1200 3000 3000 3600
2 2 0 1 0 30 50 -1 20 0.000 0 0 -1 0 0 5
	 1200 3000 3000 3000 3000 3600 1200 3600 1200 3000
4 0 0 50 -1 18 12 0.0000 4 135 675 1350 3300 Handler\001
-6
6 1200 2100 3000 2700
2 2 0 1 0 30 50 -1 20 0.000 0 0 -1 0 0 5
	 1200 2100 3000 2100 3000 2700 1200 2700 1200 2100
4 0 0 50 -1 18 12 0.0000 4 135 675 1350 2400 Handler\001
-6
6 3600 3000 5400 3600
2 2 0 1 0 31 50 -1 20 0.000 0 0 -1 0 0 5
	 3600 3000 5400 3000 5400 3600 3600 3600 3600 3000
4 0 0 50 -1 18 12 0.0000 4 180 720 3750 3300 Signaler\001
-6
6 8100 3000 9900 3600
2 2 0 1 0 31 50 -1 20 0.000 0 0 -1 0 0 5
	 8100 3000 9900 3000 9900 3600 8100 3600 8100 3000
4 0 0 50 -1 18 12 0.0000 4 180 720 8250 3300 Signaler\001
-6
1 1 0 1 0 17 60 -1 20 0.000 1 0.0000 6750 3300 750 1575 6750 3300 6000 4875
2 1 0 1 0 7 50 -1 -1 0.000 0 0 -1 0 0 2
	 3000 2400 3600 3150
2 1 0 1 0 7 50 -1 -1 0.000 0 0 -1 0 0 2
	 3000 3300 3600 3300
2 1 0 1 0 7 50 -1 -1 0.000 0 0 -1 0 0 2
	 3000 4200 3600 3450
2 1 0 1 0 7 50 -1 -1 0.000 0 0 -1 0 0 2
	 9900 3150 10500 2400
2 1 0 1 0 7 50 -1 -1 0.000 0 0 -1 0 0 2
	 9900 3300 10500 3300
2 1 0 1 0 7 50 -1 -1 0.000 0 0 -1 0 0 2
	 9900 3450 10500 4200
2 4 0 1 0 32 60 -1 20 0.000 0 0 7 0 0 5
	 5700 4800 5700 1800 900 1800 900 4800 5700 4800
2 4 0 1 0 32 60 -1 20 0.000 0 0 7 0 0 5
	 12600 4800 12600 1800 7800 1800 7800 4800 12600 4800
2 2 0 1 0 34 50 -1 20 0.000 0 0 -1 0 0 5
	 5400 3000 8100 3000 8100 3600 5400 3600 5400 3000
4 0 0 50 -1 18 12 0.0000 4 150 705 4350 4500 process\001
4 0 0 50 -1 18 12 0.0000 4 150 705 8475 4500 process\001
4 0 0 50 -1 18 12 0.0000 4 135 735 6375 4200 network\001
